<svg width="16" height="16" viewBox="0 0 16 16" fill="none" xmlns="http://www.w3.org/2000/svg">
<path d="M13.7539 4.6562C13.9297 4.45698 14.0156 4.19526 14 3.93354C13.9805 3.66792 13.8594 3.42182 13.6602 3.24604C13.4609 3.07026 13.1992 2.98042 12.9336 2.99995C12.668 3.01557 12.4219 3.14057 12.2461 3.33979L5.94922 10.5351L3.70703 8.28901C3.31641 7.89838 2.68359 7.89838 2.29297 8.28901C2.10547 8.47651 2 8.73432 2 8.99995C2 9.26557 2.10547 9.51948 2.29297 9.70698L5.29297 12.707C5.48828 12.9023 5.75781 13.0078 6.03516 12.9999C6.3125 12.9882 6.57031 12.8671 6.75391 12.6562L13.7539 4.6562Z" fill="currentColor"/>
</svg>
