<svg width="16" height="16" viewBox="0 0 16 16" fill="none" xmlns="http://www.w3.org/2000/svg">
<g clip-path="url(#clip0_1_800)">
<path d="M12.9414 15.4102L8.04297 11.8281L3.05859 15.4219L4.95312 9.65625L-0.0078125 6.02734L6.0625 6.04688L7.98047 0.207031L9.83594 5.98828L15.9844 6.00781L11.0586 9.55859L12.9414 15.4102Z" fill="#E5A50A"/>
</g>
<defs>
<clipPath id="clip0_1_800">
<rect width="16" height="16" fill="white"/>
</clipPath>
</defs>
</svg>
