<svg width="16" height="17" viewBox="0 0 16 17" fill="none" xmlns="http://www.w3.org/2000/svg">
<g clip-path="url(#clip0_1_504)">
<path d="M10.8047 10.5C9.99219 10.6445 9.69922 11.6562 10.3047 12.2187L13.3047 15.2187C14.2617 16.1562 15.668 14.7187 14.7109 13.7812L11.7109 10.7812C11.4727 10.5391 11.1328 10.4336 10.8047 10.5Z" fill="#2E3436" fill-opacity="0.7"/>
<path d="M6.5 0.5C2.92188 0.5 0 3.42188 0 7C0 10.5781 2.92188 13.4961 6.5 13.4961C10.0781 13.4961 13 10.5781 13 7C13 3.42188 10.0781 0.5 6.5 0.5ZM6.5 2.5C8.99609 2.5 11 4.50391 11 7C11 9.49609 8.99609 11.4961 6.5 11.4961C4.00391 11.4961 2 9.49609 2 7C2 4.50391 4.00391 2.5 6.5 2.5Z" fill="#2E3436" fill-opacity="0.7"/>
</g>
<defs>
<clipPath id="clip0_1_504">
<rect width="16" height="16" fill="white" transform="translate(0 0.5)"/>
</clipPath>
</defs>
</svg>
