<svg width="16" height="16" viewBox="0 0 16 16" fill="none" xmlns="http://www.w3.org/2000/svg">
<g clip-path="url(#clip0_43_1597)">
<path d="M8 0C3.585 0 0 3.585 0 8C0 12.415 3.585 16 8 16C12.415 16 16 12.415 16 8C16 3.585 12.415 0 8 0ZM8 2C11.341 2 14 4.659 14 8C14 11.341 11.341 14 8 14C4.659 14 2 11.341 2 8C2 4.659 4.659 2 8 2Z" fill="#474747"/>
<path d="M7.338 5C6.71841 5.00158 6.12465 5.24842 5.68653 5.68653C5.24842 6.12465 5.00158 6.71841 5 7.338V8.662C5.00158 9.28159 5.24842 9.87535 5.68653 10.3135C6.12465 10.7516 6.71841 10.9984 7.338 11H8.662C9.28159 10.9984 9.87535 10.7516 10.3135 10.3135C10.7516 9.87535 10.9984 9.28159 11 8.662V7.338C10.9984 6.71841 10.7516 6.12465 10.3135 5.68653C9.87535 5.24842 9.28159 5.00158 8.662 5H7.338ZM7.338 6H8.662C9.412 6 10 6.588 10 7.338V8.662C10 9.412 9.412 10 8.662 10H7.338C6.588 10 6 9.412 6 8.662V7.338C6 6.588 6.588 6 7.338 6Z" fill="#474747"/>
<path d="M4.71901 1.43752C3.97507 1.73668 3.30016 2.18481 2.73575 2.75437C2.17135 3.32393 1.72938 4.00289 1.43701 4.74952L5.18701 6.62452C5.43901 5.98452 5.93001 5.45452 6.56201 5.18652L4.71901 1.43752ZM11.281 1.43752L9.43701 5.18752C9.75024 5.32377 10.0332 5.52099 10.2695 5.7677C10.5057 6.01442 10.6905 6.30568 10.813 6.62452L14.563 4.74952C14.2708 4.0027 13.8288 3.32355 13.2644 2.75381C12.7 2.18407 12.0251 1.73679 11.281 1.43752ZM5.18701 9.43752L1.43701 11.3115C1.73756 12.046 2.1831 12.7124 2.747 13.2708C3.31091 13.8292 3.98161 14.2682 4.71901 14.5615L6.59401 10.8115C5.96261 10.5563 5.45713 10.0627 5.18701 9.43752ZM10.812 9.43752C10.5421 10.0625 10.037 10.5561 9.40601 10.8115L11.281 14.5615C12.0182 14.2681 12.6887 13.829 13.2525 13.2706C13.8162 12.7122 14.2616 12.0459 14.562 11.3115L10.812 9.43752Z" fill="#474747"/>
</g>
<defs>
<clipPath id="clip0_43_1597">
<rect width="16" height="16" fill="white"/>
</clipPath>
</defs>
</svg>
